<?xml version="1.0" encoding="UTF-8" standalone="no"?>
<!-- Created with Inkscape (http://www.inkscape.org/) -->

<svg
   xmlns:dc="http://purl.org/dc/elements/1.1/"
   xmlns:cc="http://creativecommons.org/ns#"
   xmlns:rdf="http://www.w3.org/1999/02/22-rdf-syntax-ns#"
   xmlns:svg="http://www.w3.org/2000/svg"
   xmlns="http://www.w3.org/2000/svg"
   xmlns:sodipodi="http://sodipodi.sourceforge.net/DTD/sodipodi-0.dtd"
   xmlns:inkscape="http://www.inkscape.org/namespaces/inkscape"
   width="2048"
   height="1024"
   id="svg2"
   version="1.1"
   inkscape:version="0.48.4 r9939"
   sodipodi:docname="TitleImage.svg"
   inkscape:export-filename="C:\Users\Archerofyail\Github Repos\SkySword\SkySword\Assets\Images\TitleImage.png"
   inkscape:export-xdpi="126.55448"
   inkscape:export-ydpi="126.55448">
  <defs
     id="defs4" />
  <sodipodi:namedview
     id="base"
     pagecolor="#ffffff"
     bordercolor="#666666"
     borderopacity="1.0"
     inkscape:pageopacity="0.0"
     inkscape:pageshadow="2"
     inkscape:zoom="0.35"
     inkscape:cx="843.57141"
     inkscape:cy="520"
     inkscape:document-units="px"
     inkscape:current-layer="layer1"
     showgrid="false"
     inkscape:window-width="1858"
     inkscape:window-height="1057"
     inkscape:window-x="1912"
     inkscape:window-y="-8"
     inkscape:window-maximized="1" />
  <metadata
     id="metadata7">
    <rdf:RDF>
      <cc:Work
         rdf:about="">
        <dc:format>image/svg+xml</dc:format>
        <dc:type
           rdf:resource="http://purl.org/dc/dcmitype/StillImage" />
        <dc:title></dc:title>
      </cc:Work>
    </rdf:RDF>
  </metadata>
  <g
     inkscape:label="Layer 1"
     inkscape:groupmode="layer"
     id="layer1"
     transform="translate(0,-28.362153)">
    <text
       xml:space="preserve"
       style="font-size:40px;font-style:normal;font-weight:bold;text-align:center;line-height:125%;letter-spacing:0px;word-spacing:0px;text-anchor:middle;fill:#efd100;fill-opacity:1;stroke:#744646;stroke-width:35;stroke-linecap:round;stroke-linejoin:round;stroke-miterlimit:4;stroke-opacity:1;stroke-dasharray:none;font-family:Sans;-inkscape-font-specification:Aharoni Bold"
       x="1015.6027"
       y="426.64786"
       id="text2985"
       sodipodi:linespacing="125%"
       inkscape:export-filename="C:\Users\Archerofyail\Github Repos\SkySword\SkySword\Assets\Images\TitleImage.png"
       inkscape:export-xdpi="253.10896"
       inkscape:export-ydpi="253.10896"><tspan
         sodipodi:role="line"
         id="tspan2987"
         x="1088.259"
         y="426.64786"
         style="font-size:400px;font-style:normal;font-variant:normal;font-weight:bold;font-stretch:normal;text-align:center;text-anchor:middle;fill:#efd100;fill-opacity:1;stroke:#744646;stroke-width:35;stroke-linecap:round;stroke-linejoin:round;stroke-miterlimit:4;stroke-opacity:1;stroke-dasharray:none;font-family:HighlandGothicFLF;-inkscape-font-specification:HighlandGothicFLF Bold">Sky </tspan><tspan
         sodipodi:role="line"
         x="1015.6027"
         y="926.64789"
         style="font-size:400px;font-style:normal;font-variant:normal;font-weight:bold;font-stretch:normal;text-align:center;text-anchor:middle;fill:#efd100;fill-opacity:1;stroke:#744646;stroke-width:35;stroke-linecap:round;stroke-linejoin:round;stroke-miterlimit:4;stroke-opacity:1;stroke-dasharray:none;font-family:HighlandGothicFLF;-inkscape-font-specification:HighlandGothicFLF Bold"
         id="tspan2989">Sword</tspan></text>
    <text
       sodipodi:linespacing="125%"
       id="text3753"
       y="435.2193"
       x="1024.1743"
       style="font-size:40px;font-style:normal;font-weight:bold;text-align:center;line-height:125%;letter-spacing:0px;word-spacing:0px;text-anchor:middle;fill:#efd100;fill-opacity:1;stroke:#744646;stroke-width:0;stroke-linecap:round;stroke-linejoin:round;stroke-miterlimit:4;stroke-opacity:1;stroke-dasharray:none;font-family:Sans;-inkscape-font-specification:Aharoni Bold"
       xml:space="preserve"><tspan
         style="font-size:400px;font-style:normal;font-variant:normal;font-weight:bold;font-stretch:normal;text-align:center;text-anchor:middle;fill:#efd100;fill-opacity:1;stroke:#744646;stroke-width:0;stroke-linecap:round;stroke-linejoin:round;stroke-miterlimit:4;stroke-opacity:1;stroke-dasharray:none;font-family:HighlandGothicFLF;-inkscape-font-specification:HighlandGothicFLF Bold"
         y="435.2193"
         x="1096.8306"
         id="tspan3755"
         sodipodi:role="line">Sky </tspan><tspan
         id="tspan3757"
         style="font-size:400px;font-style:normal;font-variant:normal;font-weight:bold;font-stretch:normal;text-align:center;text-anchor:middle;fill:#efd100;fill-opacity:1;stroke:#744646;stroke-width:0;stroke-linecap:round;stroke-linejoin:round;stroke-miterlimit:4;stroke-opacity:1;stroke-dasharray:none;font-family:HighlandGothicFLF;-inkscape-font-specification:HighlandGothicFLF Bold"
         y="935.21924"
         x="1024.1743"
         sodipodi:role="line">Sword</tspan></text>
    <path
       style="font-size:40px;font-style:normal;font-weight:bold;text-align:center;line-height:125%;letter-spacing:0px;word-spacing:0px;text-anchor:middle;fill:#fff185;fill-opacity:1;stroke:#744646;stroke-width:0;stroke-linecap:round;stroke-linejoin:round;stroke-miterlimit:4;stroke-opacity:1;stroke-dasharray:none;font-family:Sans;-inkscape-font-specification:Aharoni Bold"
       d="M 799.96875 111.625 C 769.76562 111.62498 739.57812 111.62895 709.375 111.65625 C 683.86957 111.18964 655.76534 121.79306 643.65625 145.65625 C 635.43859 162.99919 632.68188 182.72098 634.96875 201.8125 C 636.24664 191.2831 639.11354 180.96216 643.65625 171.375 C 655.76534 147.51181 683.86957 136.90839 709.375 137.375 C 769.78123 137.3204 830.1875 137.35175 890.59375 137.34375 L 890.59375 111.625 C 860.39062 111.629 830.17188 111.62502 799.96875 111.625 z M 974.625 111.625 L 974.625 137.34375 L 1009.4062 137.34375 C 1009.4045 128.77648 1009.4158 120.19222 1009.4375 111.625 L 974.625 111.625 z M 1009.4062 155.5625 C 1009.4001 170.20656 1009.4507 184.8559 1009.4688 199.5 C 1009.4695 184.85089 1009.4229 170.21166 1009.4062 155.5625 z M 1101 200.4375 C 1077.9646 225.4829 1058.2193 254.20891 1032.0938 276.46875 C 1022.1704 280.07869 1012.2417 272.48076 1009.4062 263.0625 C 1009.3803 268.29743 1009.3235 273.5151 1009.2812 278.75 C 1006.0332 289.29176 1014.5044 301.59597 1025.0312 302.96875 C 1026.0641 302.91176 1027.0832 302.93083 1028.125 303.03125 C 1028.1553 303.03417 1028.1884 303.0282 1028.2188 303.03125 C 1029.4982 302.92137 1030.7996 302.65828 1032.0938 302.1875 C 1058.2193 279.92766 1077.9646 251.20165 1101 226.15625 L 1114.5625 226.15625 C 1122.3053 217.59999 1130.0318 209.02745 1137.7188 200.4375 L 1101 200.4375 z M 1230.0938 200.4375 C 1230.0937 209.01042 1230.0938 217.58333 1230.0938 226.15625 L 1264.9062 226.15625 C 1264.8992 217.58789 1264.8877 209.0055 1264.9062 200.4375 L 1230.0938 200.4375 z M 1371.3125 200.4375 C 1371.1762 211.74296 1371.1754 223.06233 1371.2188 234.375 C 1371.2378 231.64089 1371.2795 228.88981 1371.3125 226.15625 L 1406.0938 226.15625 C 1406.0938 217.58333 1406.0938 209.01042 1406.0938 200.4375 L 1371.3125 200.4375 z M 683.125 202.40625 C 680.47043 211.70054 680.64453 221.88665 684.03125 230.78125 C 689.36577 247.21579 706.22629 256.79997 722.84375 258.0625 C 759.50191 260.37172 796.3543 256.97722 833.0625 259 C 854.48518 258.44494 876.49978 265.87653 890.59375 282.5625 C 899.9878 294.37066 904.84953 308.65546 906.53125 323.46875 C 908.99648 300.17939 905.39187 275.44475 890.59375 256.84375 C 876.49978 240.15778 854.48518 232.72619 833.0625 233.28125 C 796.3543 231.25847 759.50191 234.65297 722.84375 232.34375 C 706.22629 231.08122 689.36577 221.49704 684.03125 205.0625 C 683.69597 204.18196 683.39754 203.31011 683.125 202.40625 z M 1371.4688 302.03125 C 1371.3688 320.24711 1370.9944 338.44107 1370.0312 356.625 C 1364.7732 367.99513 1350.2876 368.28177 1339.5312 367.28125 C 1319.4218 367.05026 1296.0631 370.43711 1279.75 355.96875 C 1269.2989 346.57711 1265.7765 333.36312 1264.8125 319.78125 C 1264.8041 321.09449 1264.8224 322.40553 1264.8125 323.71875 C 1263.9915 343.64975 1263.6546 367.22376 1279.75 381.6875 C 1285.3756 386.67695 1291.8392 389.5652 1298.7188 391.1875 C 1318.4036 391.28558 1338.2241 388.93204 1357.6562 392.0625 C 1362.9321 390.61548 1367.5324 387.74739 1370.0312 382.34375 C 1371.4474 355.6064 1371.5889 328.82506 1371.4688 302.03125 z M 1069.1562 302.28125 C 1064.7887 307.9317 1061.7867 314.30461 1064.0312 321.59375 C 1083.0213 345.70224 1103.9754 368.21412 1124.7188 390.84375 L 1147.9688 390.84375 C 1121.8717 361.25347 1094.04 332.9726 1069.1562 302.28125 z M 859.125 324.5 C 856.05948 336.16142 848.78337 346.47996 837.46875 351.71875 C 814.20695 360.60737 788.88247 354.70818 764.6875 356.3125 C 725.71923 356.58547 686.75009 356.41434 647.78125 356.4375 L 647.78125 382.15625 C 686.75009 382.13309 725.71923 382.30422 764.6875 382.03125 C 788.88247 380.42693 814.20695 386.32612 837.46875 377.4375 C 856.88615 368.44705 864.48313 344.48131 859.125 324.5 z M 1230.0938 339.21875 C 1229.9167 341.37285 1229.9379 343.52273 1230.0938 345.625 C 1230.0937 343.48958 1230.0938 341.35417 1230.0938 339.21875 z M 1405.875 347.59375 C 1405.5891 364.38585 1405.9719 381.17422 1406.1562 397.96875 C 1406.4206 381.18029 1406.0524 364.38942 1405.875 347.59375 z M 1009.3125 361.25 C 1008.9233 371.07397 1009.1629 380.96506 1009.4062 390.84375 L 1009.625 390.84375 C 1009.8491 381.02454 1009.5445 371.14583 1009.3125 361.25 z M 1370.25 428.9375 C 1366.2785 444.95616 1352.0193 458.32625 1335.0938 458.625 C 1314.2231 460.90584 1293.2286 457.77547 1272.3125 459.25 L 1235.6875 459.25 L 1235.6875 479.46875 C 1275.2605 478.69356 1315.1215 482.0065 1354.5312 477.75 C 1363.3709 471.45836 1369.638 461.34759 1371.0625 450.46875 C 1372.0338 443.78926 1372.5467 435.64319 1370.25 428.9375 z M 489.75 611.625 C 459.125 611.62496 428.49999 611.6289 397.875 611.65625 C 371.18908 611.49089 342.00373 625.04807 332.25 651.125 C 325.91859 666.95613 324.08379 684.36212 326.0625 701.3125 C 327.08231 692.93765 329.11008 684.69485 332.25 676.84375 C 342.00373 650.76682 371.18908 637.20964 397.875 637.375 C 459.12498 637.3203 520.375 637.35175 581.625 637.34375 L 581.625 611.625 C 551 611.629 520.375 611.62504 489.75 611.625 z M 1680.25 611.625 L 1680.25 637.34375 L 1715.0625 637.34375 C 1715.0623 628.77179 1715.0633 620.19696 1715.0625 611.625 L 1680.25 611.625 z M 1680.25 684.4375 C 1679.0701 698.01479 1662.5438 703.35032 1650.9688 700.21875 C 1617.9272 701.64871 1582.1702 695.66926 1552.0938 712.1875 C 1525.027 727.65604 1512.9909 760.13418 1513.5938 790.125 C 1513.2902 796.06006 1513.301 802.15163 1513.7188 808.21875 C 1515.1394 780.50436 1527.3137 752.06799 1552.0938 737.90625 C 1565.2149 730.70004 1579.4138 727.78206 1594 726.65625 C 1596.3696 725.98324 1598.8277 725.46346 1601.3438 725.15625 C 1616.3529 722.68332 1631.6263 725.12835 1646.7188 723.875 C 1652.8842 724.19042 1660.3507 723.71753 1666.7188 725.40625 C 1673.7435 723.11187 1679.5674 718.01081 1680.25 710.15625 L 1680.25 684.4375 z M 1155.4375 696.03125 C 1153.9648 696.03458 1152.4979 696.05362 1151.0312 696.09375 C 1119.6961 695.77027 1085.6316 707.09951 1067.9062 734.375 C 1054.4489 756.26668 1049.4962 782.54219 1052.0625 808 C 1053.7949 791.1215 1058.9692 774.63215 1067.9062 760.09375 C 1079.5204 742.22209 1098.1578 731.19975 1118.4375 725.8125 C 1126.6376 720.59217 1136.1453 717.48295 1146.0625 717.46875 C 1149.9635 717.17793 1153.87 717.03074 1157.7812 716.96875 C 1168.7274 716.77822 1179.8544 719.92097 1189.3438 725.625 C 1199.736 728.24436 1209.7107 732.33175 1218.7188 738.375 C 1242.3383 753.7095 1253.9205 781.34804 1256.2188 808.71875 C 1256.6705 803.50746 1256.8072 798.28265 1256.6562 793.125 C 1256.6122 762.65249 1245.2638 729.89007 1218.7188 712.65625 C 1200.1509 700.19956 1177.528 695.98126 1155.4375 696.03125 z M 1404.8125 700.21875 C 1376.1273 700.70873 1347.4372 700.30195 1318.75 700.4375 L 1318.75 726.15625 C 1333.7285 726.08547 1348.7085 726.16742 1363.6875 726.1875 C 1369.997 723.39627 1378.0091 723.34193 1384.5938 723.90625 C 1390.1625 723.26542 1395.6284 724.09453 1400.7188 726 C 1402.0843 725.98058 1403.447 725.96082 1404.8125 725.9375 C 1416.5418 725.62565 1428.2744 728.89914 1438.1562 735.1875 C 1447.815 740.76366 1454.2581 749.69517 1458 759.8125 C 1459.3553 759.78696 1460.7073 759.71695 1462.0625 759.65625 C 1462.521 740.45714 1455.5717 719.52293 1438.1562 709.46875 C 1428.2744 703.18039 1416.5418 699.9069 1404.8125 700.21875 z M 657.59375 700.4375 L 666.84375 726.15625 L 698.3125 726.15625 C 709.00416 763.27286 719.69049 800.5237 730.21875 837.75 C 730.24919 852.26522 750.94781 861.78987 761.125 850.625 C 777.75561 810.22765 787.90062 767.53118 801.78125 726.15625 L 853.90625 726.15625 C 865.51271 763.33004 877.12401 800.50249 888.59375 837.71875 C 888.62762 852.57164 910.3337 862.16329 920.3125 850.15625 C 935.53198 809.77699 945.05866 767.45433 957.28125 726.15625 L 988.78125 726.15625 L 998.09375 700.4375 L 957.28125 700.4375 C 945.05866 741.73558 935.53198 784.05824 920.3125 824.4375 C 910.3337 836.44454 888.62762 826.85289 888.59375 812 C 877.12401 774.78374 865.51271 737.61129 853.90625 700.4375 L 801.78125 700.4375 C 787.90062 741.81243 777.75561 784.5089 761.125 824.90625 C 750.94781 836.07112 730.24919 826.54647 730.21875 812.03125 C 719.69049 774.80495 709.00416 737.55411 698.3125 700.4375 L 657.59375 700.4375 z M 374.09375 702.6875 C 372.18689 709.35067 371.74649 716.4371 373 723.125 C 375.34226 741.37426 391.5909 755.03823 409.3125 757.5625 C 447.1694 760.83886 485.28033 756.8733 523.21875 758.9375 C 546.55336 757.84486 570.92573 767.36098 584.75 786.59375 C 591.99568 797.71987 595.98351 810.46152 597.5 823.59375 C 599.7672 801.9331 596.6928 779.21378 584.75 760.875 C 570.92573 741.64223 546.55336 732.12611 523.21875 733.21875 C 485.28033 731.15455 447.1694 735.12011 409.3125 731.84375 C 393.34069 729.56872 378.57051 718.2612 374.09375 702.6875 z M 1679.8125 765.375 C 1679.7885 767.36328 1679.8601 769.32373 1680.0625 771.28125 C 1679.9651 776.12418 1679.9743 780.98174 1680.0312 785.84375 C 1680.4519 778.94468 1681.1974 772.00673 1679.8125 765.375 z M 1551.875 808.34375 C 1548.7066 834.55027 1554.6829 864.72931 1576.6562 881.59375 C 1582.6838 886.14539 1589.3452 888.98798 1596.3438 890.71875 C 1605.1868 891.30221 1614.0897 891.21199 1622.7188 890.8125 C 1638.5729 890.81559 1654.427 890.82914 1670.2812 890.8125 C 1673.3294 889.39532 1675.9973 887.2336 1678 884 C 1680.7877 866.64666 1680.75 849.04132 1680.4062 831.40625 C 1680.1264 840.41643 1679.4301 849.37886 1678 858.28125 C 1671.0262 869.54111 1656.0358 867.78831 1644.7188 867.03125 C 1621.9177 867.37997 1596.0324 870.50681 1576.6562 855.875 C 1561.6869 844.3861 1554.1584 826.73089 1551.875 808.34375 z M 1218.2188 809.28125 C 1216.9126 822.8941 1213.4339 836.21586 1207.375 848.5 C 1194.9871 868.39063 1170.2482 876.44302 1147.7812 874.21875 C 1125.7436 873.12094 1103.0529 860.02613 1096.25 838.09375 C 1092.9588 829.16847 1091.0079 819.89914 1090.125 810.5 C 1088.6305 828.52658 1089.9786 846.77423 1096.25 863.78125 C 1100.0327 875.97659 1108.7323 885.4615 1119.5 891.65625 C 1125.6822 893.19094 1132.0139 894.13902 1138.3125 894.4375 C 1155.3884 896.24754 1173.3777 895.49197 1190.125 891 C 1196.9947 886.85082 1202.9706 881.29062 1207.375 874.21875 C 1217.2284 854.24131 1220.2667 831.47404 1218.2188 809.28125 z M 1353.4375 815.21875 C 1353.3499 836.01406 1353.568 856.82512 1353.6562 877.625 C 1353.7496 856.83058 1353.5281 836.01821 1353.4375 815.21875 z M 550.125 824.40625 C 546.83387 837.02202 538.67469 848.2133 526 852.6875 C 502.00365 860.24411 476.58034 854.74748 451.9375 856.3125 C 414.22948 856.51981 376.52094 856.47735 338.8125 856.4375 L 338.8125 882.15625 C 376.52094 882.1961 414.22948 882.23856 451.9375 882.03125 C 476.58034 880.46623 502.00365 885.96286 526 878.40625 C 546.79949 871.06398 555.49711 845.6399 550.34375 825.5 C 550.27697 825.12791 550.20358 824.7738 550.125 824.40625 z "
       transform="translate(0,28.362153)"
       id="text3919" />
  </g>
</svg>
