%YAML 1.1
%TAG !u! tag:unity3d.com,2011:
--- !u!74 &7400000
AnimationClip:
  m_ObjectHideFlags: 0
  m_PrefabParentObject: {fileID: 0}
  m_PrefabInternal: {fileID: 0}
  m_Name: Death
  serializedVersion: 4
  m_AnimationType: 1
  m_Compressed: 0
  m_UseHighQualityCurve: 1
  m_RotationCurves:
  - curve:
      serializedVersion: 2
      m_Curve:
      - time: 0
        value: {x: 0, y: 0, z: 0, w: 1}
        inSlope: {x: 3.7680881, y: 0, z: 0, w: -.11843919}
        outSlope: {x: 3.7680881, y: 0, z: 0, w: -.11843919}
        tangentMode: -559038737
      - time: .0500000045
        value: {x: .198132843, y: 0, z: 0, w: .980175197}
        inSlope: {x: 4.14379883, y: 0, z: 0, w: -.841119289}
        outSlope: {x: 4.14379883, y: 0, z: 0, w: -.841119289}
        tangentMode: -559038737
      - time: .13333334
        value: {x: .521030247, y: 0, z: 0, w: .853538215}
        inSlope: {x: 3.25162888, y: 0, z: 0, w: -1.97499251}
        outSlope: {x: 3.25162888, y: 0, z: 0, w: -1.97499251}
        tangentMode: -559038737
      - time: .200000003
        value: {x: .68464309, y: 0, z: 0, w: .728878498}
        inSlope: {x: 1.57813859, y: 0, z: 0, w: -1.46860075}
        outSlope: {x: 1.57813859, y: 0, z: 0, w: -1.46860075}
        tangentMode: -559038737
      - time: .216666669
        value: {x: .707106769, y: 0, z: 0, w: .707106769}
        inSlope: {x: .673910439, y: 0, z: 0, w: -.653151929}
        outSlope: {x: .673910439, y: 0, z: 0, w: -.653151929}
        tangentMode: -559038737
      - time: .25
        value: {x: .707106769, y: 0, z: 0, w: .707106769}
        inSlope: {x: 0, y: 0, z: 0, w: 0}
        outSlope: {x: 0, y: 0, z: 0, w: 0}
        tangentMode: -559038737
      - time: 1.08333302
        value: {x: .707106769, y: 0, z: 0, w: .707106769}
        inSlope: {x: 0, y: 0, z: 0, w: 0}
        outSlope: {x: 0, y: 0, z: 0, w: 0}
        tangentMode: -559038737
      - time: 1.91666555
        value: {x: .707106769, y: 0, z: 0, w: .707106769}
        inSlope: {x: 0, y: 0, z: 0, w: 0}
        outSlope: {x: 0, y: 0, z: 0, w: 0}
        tangentMode: -559038737
      - time: 2.01666665
        value: {x: .707111418, y: 0, z: 0, w: .70710212}
        inSlope: {x: .000278930063, y: 0, z: 0, w: -.000278930063}
        outSlope: {x: .000278930063, y: 0, z: 0, w: -.000278930063}
        tangentMode: -559038737
      m_PreInfinity: 2
      m_PostInfinity: 2
    path: 
  m_CompressedRotationCurves: []
  m_PositionCurves:
  - curve:
      serializedVersion: 2
      m_Curve:
      - time: 0
        value: {x: 78.6606598, y: .894257069, z: 198.179993}
        inSlope: {x: 4.20605287e-34, y: 0, z: 3.78464913}
        outSlope: {x: 3.7565785e-39, y: 0, z: 3.78464913}
        tangentMode: 67
      - time: .166666672
        value: {x: 78.6606598, y: .894257069, z: 198.81076}
        inSlope: {x: 4.20605287e-34, y: 0, z: 3.78464913}
        outSlope: {x: 3.7565785e-39, y: 0, z: 3.78464913}
        tangentMode: 67
      - time: .216666669
        value: {x: 78.6606598, y: .894257069, z: 199}
        inSlope: {x: 0, y: 0, z: 3.78464913}
        outSlope: {x: 0, y: 0, z: 3.78464913}
        tangentMode: 67
      m_PreInfinity: 2
      m_PostInfinity: 2
    path: 
  m_ScaleCurves: []
  m_FloatCurves: []
  m_PPtrCurves: []
  m_SampleRate: 60
  m_WrapMode: 0
  m_Bounds:
    m_Center: {x: 0, y: 0, z: 0}
    m_Extent: {x: 0, y: 0, z: 0}
  m_AnimationClipSettings:
    serializedVersion: 2
    m_StartTime: 0
    m_StopTime: 1
    m_OrientationOffsetY: 0
    m_Level: 0
    m_CycleOffset: 0
    m_LoopTime: 0
    m_LoopBlend: 0
    m_LoopBlendOrientation: 0
    m_LoopBlendPositionY: 0
    m_LoopBlendPositionXZ: 0
    m_KeepOriginalOrientation: 0
    m_KeepOriginalPositionY: 1
    m_KeepOriginalPositionXZ: 0
    m_HeightFromFeet: 0
    m_Mirror: 0
  m_EditorCurves:
  - curve:
      serializedVersion: 2
      m_Curve:
      - time: 0
        value: 0
        inSlope: 3.7680881
        outSlope: 3.7680881
        tangentMode: 0
      - time: .0500000045
        value: .198132843
        inSlope: 4.14379883
        outSlope: 4.14379883
        tangentMode: 0
      - time: .13333334
        value: .521030247
        inSlope: 3.25162888
        outSlope: 3.25162888
        tangentMode: 0
      - time: .200000003
        value: .68464309
        inSlope: 1.57813859
        outSlope: 1.57813859
        tangentMode: 0
      - time: .216666669
        value: .707106769
        inSlope: .673910439
        outSlope: .673910439
        tangentMode: 0
      - time: .25
        value: .707106769
        inSlope: 0
        outSlope: 0
        tangentMode: 0
      - time: 1.08333302
        value: .707106769
        inSlope: 0
        outSlope: 0
        tangentMode: 0
      - time: 1.91666555
        value: .707106769
        inSlope: 0
        outSlope: 0
        tangentMode: 0
      - time: 2.01666665
        value: .707111418
        inSlope: .000278930063
        outSlope: .000278930063
        tangentMode: 0
      m_PreInfinity: 2
      m_PostInfinity: 2
    attribute: m_LocalRotation.x
    path: 
    classID: 4
    script: {fileID: 0}
  - curve:
      serializedVersion: 2
      m_Curve:
      - time: 0
        value: 0
        inSlope: 0
        outSlope: 0
        tangentMode: 0
      - time: .0500000045
        value: 0
        inSlope: 0
        outSlope: 0
        tangentMode: 0
      - time: .13333334
        value: 0
        inSlope: 0
        outSlope: 0
        tangentMode: 0
      - time: .200000003
        value: 0
        inSlope: 0
        outSlope: 0
        tangentMode: 0
      - time: .216666669
        value: 0
        inSlope: 0
        outSlope: 0
        tangentMode: 0
      - time: .25
        value: 0
        inSlope: 0
        outSlope: 0
        tangentMode: 0
      - time: 1.08333302
        value: 0
        inSlope: 0
        outSlope: 0
        tangentMode: 0
      - time: 1.91666555
        value: 0
        inSlope: 0
        outSlope: 0
        tangentMode: 0
      - time: 2.01666665
        value: 0
        inSlope: 0
        outSlope: 0
        tangentMode: 0
      m_PreInfinity: 2
      m_PostInfinity: 2
    attribute: m_LocalRotation.y
    path: 
    classID: 4
    script: {fileID: 0}
  - curve:
      serializedVersion: 2
      m_Curve:
      - time: 0
        value: 0
        inSlope: 0
        outSlope: 0
        tangentMode: 0
      - time: .0500000045
        value: 0
        inSlope: 0
        outSlope: 0
        tangentMode: 0
      - time: .13333334
        value: 0
        inSlope: 0
        outSlope: 0
        tangentMode: 0
      - time: .200000003
        value: 0
        inSlope: 0
        outSlope: 0
        tangentMode: 0
      - time: .216666669
        value: 0
        inSlope: 0
        outSlope: 0
        tangentMode: 0
      - time: .25
        value: 0
        inSlope: 0
        outSlope: 0
        tangentMode: 0
      - time: 1.08333302
        value: 0
        inSlope: 0
        outSlope: 0
        tangentMode: 0
      - time: 1.91666555
        value: 0
        inSlope: 0
        outSlope: 0
        tangentMode: 0
      - time: 2.01666665
        value: 0
        inSlope: 0
        outSlope: 0
        tangentMode: 0
      m_PreInfinity: 2
      m_PostInfinity: 2
    attribute: m_LocalRotation.z
    path: 
    classID: 4
    script: {fileID: 0}
  - curve:
      serializedVersion: 2
      m_Curve:
      - time: 0
        value: 1
        inSlope: -.11843919
        outSlope: -.11843919
        tangentMode: 0
      - time: .0500000045
        value: .980175197
        inSlope: -.841119289
        outSlope: -.841119289
        tangentMode: 0
      - time: .13333334
        value: .853538215
        inSlope: -1.97499251
        outSlope: -1.97499251
        tangentMode: 0
      - time: .200000003
        value: .728878498
        inSlope: -1.46860075
        outSlope: -1.46860075
        tangentMode: 0
      - time: .216666669
        value: .707106769
        inSlope: -.653151929
        outSlope: -.653151929
        tangentMode: 0
      - time: .25
        value: .707106769
        inSlope: 0
        outSlope: 0
        tangentMode: 0
      - time: 1.08333302
        value: .707106769
        inSlope: 0
        outSlope: 0
        tangentMode: 0
      - time: 1.91666555
        value: .707106769
        inSlope: 0
        outSlope: 0
        tangentMode: 0
      - time: 2.01666665
        value: .70710212
        inSlope: -.000278930063
        outSlope: -.000278930063
        tangentMode: 0
      m_PreInfinity: 2
      m_PostInfinity: 2
    attribute: m_LocalRotation.w
    path: 
    classID: 4
    script: {fileID: 0}
  - curve:
      serializedVersion: 2
      m_Curve:
      - time: .166666672
        value: 78.6606598
        inSlope: 4.20605287e-34
        outSlope: 3.7565785e-39
        tangentMode: 10
      m_PreInfinity: 2
      m_PostInfinity: 2
    attribute: m_LocalPosition.x
    path: 
    classID: 4
    script: {fileID: 0}
  - curve:
      serializedVersion: 2
      m_Curve:
      - time: .166666672
        value: .894257069
        inSlope: 7.44654365e-34
        outSlope: 3.7565785e-39
        tangentMode: 10
      m_PreInfinity: 2
      m_PostInfinity: 2
    attribute: m_LocalPosition.y
    path: 
    classID: 4
    script: {fileID: 0}
  - curve:
      serializedVersion: 2
      m_Curve:
      - time: 0
        value: 198.179993
        inSlope: 3.78464913
        outSlope: 3.78464913
        tangentMode: 10
      - time: .216666669
        value: 199
        inSlope: 3.78464913
        outSlope: 3.78464913
        tangentMode: 10
      m_PreInfinity: 2
      m_PostInfinity: 2
    attribute: m_LocalPosition.z
    path: 
    classID: 4
    script: {fileID: 0}
  m_EulerEditorCurves:
  - curve:
      serializedVersion: 2
      m_Curve:
      - time: 0
        value: 0
        inSlope: 415.384613
        outSlope: 415.384613
        tangentMode: 10
      - time: .216666669
        value: 90
        inSlope: 180.322052
        outSlope: Infinity
        tangentMode: 25
      - time: 2.01666665
        value: 90.0007553
        inSlope: .000419616699
        outSlope: .000419616699
        tangentMode: 10
      m_PreInfinity: 2
      m_PostInfinity: 2
    attribute: localEulerAnglesBaked.x
    path: 
    classID: 4
    script: {fileID: 0}
  - curve:
      serializedVersion: 2
      m_Curve:
      - time: 0
        value: 0
        inSlope: 7.26212879e-34
        outSlope: 3.7565785e-39
        tangentMode: 10
      m_PreInfinity: 2
      m_PostInfinity: 2
    attribute: localEulerAnglesBaked.y
    path: 
    classID: 4
    script: {fileID: 0}
  - curve:
      serializedVersion: 2
      m_Curve:
      - time: 0
        value: 0
        inSlope: 7.38016128e-34
        outSlope: 3.7565785e-39
        tangentMode: 10
      m_PreInfinity: 2
      m_PostInfinity: 2
    attribute: localEulerAnglesBaked.z
    path: 
    classID: 4
    script: {fileID: 0}
  m_Events: []
